^C:\COURSES\TOOLS_FALL_15\BUCKLAND_PGAIBE_SOURCE_VC6-VS2010\VS2010\BUCKLAND_CHAPTER4-SIMPLESOCCER\FIELDPLAYER.CPP|C:\COURSES\TOOLS_FALL_15\BUCKLAND_PGAIBE_SOURCE_VC6-VS2010\VS2010\BUCKLAND_CHAPTER4-SIMPLESOCCER\FIELDPLAYERSTATES.CPP|C:\COURSES\TOOLS_FALL_15\BUCKLAND_PGAIBE_SOURCE_VC6-VS2010\VS2010\BUCKLAND_CHAPTER4-SIMPLESOCCER\GOALKEEPER.CPP|C:\COURSES\TOOLS_FALL_15\BUCKLAND_PGAIBE_SOURCE_VC6-VS2010\VS2010\BUCKLAND_CHAPTER4-SIMPLESOCCER\GOALKEEPERSTATES.CPP|C:\COURSES\TOOLS_FALL_15\BUCKLAND_PGAIBE_SOURCE_VC6-VS2010\VS2010\BUCKLAND_CHAPTER4-SIMPLESOCCER\MAIN.CPP|C:\COURSES\TOOLS_FALL_15\BUCKLAND_PGAIBE_SOURCE_VC6-VS2010\VS2010\BUCKLAND_CHAPTER4-SIMPLESOCCER\PARAMLOADER.CPP|C:\COURSES\TOOLS_FALL_15\BUCKLAND_PGAIBE_SOURCE_VC6-VS2010\VS2010\BUCKLAND_CHAPTER4-SIMPLESOCCER\PLAYERBASE.CPP|C:\COURSES\TOOLS_FALL_15\BUCKLAND_PGAIBE_SOURCE_VC6-VS2010\VS2010\BUCKLAND_CHAPTER4-SIMPLESOCCER\SOCCERBALL.CPP|C:\COURSES\TOOLS_FALL_15\BUCKLAND_PGAIBE_SOURCE_VC6-VS2010\VS2010\BUCKLAND_CHAPTER4-SIMPLESOCCER\SOCCERMESSAGES.CPP|C:\COURSES\TOOLS_FALL_15\BUCKLAND_PGAIBE_SOURCE_VC6-VS2010\VS2010\BUCKLAND_CHAPTER4-SIMPLESOCCER\SOCCERPITCH.CPP|C:\COURSES\TOOLS_FALL_15\BUCKLAND_PGAIBE_SOURCE_VC6-VS2010\VS2010\BUCKLAND_CHAPTER4-SIMPLESOCCER\SOCCERTEAM.CPP|C:\COURSES\TOOLS_FALL_15\BUCKLAND_PGAIBE_SOURCE_VC6-VS2010\VS2010\BUCKLAND_CHAPTER4-SIMPLESOCCER\STEERINGBEHAVIORS.CPP|C:\COURSES\TOOLS_FALL_15\BUCKLAND_PGAIBE_SOURCE_VC6-VS2010\VS2010\BUCKLAND_CHAPTER4-SIMPLESOCCER\SUPPORTSPOTCALCULATOR.CPP|C:\COURSES\TOOLS_FALL_15\BUCKLAND_PGAIBE_SOURCE_VC6-VS2010\VS2010\BUCKLAND_CHAPTER4-SIMPLESOCCER\TEAMSTATES.CPP|C:\COURSES\TOOLS_FALL_15\BUCKLAND_PGAIBE_SOURCE_VC6-VS2010\VS2010\COMMON\2D\VECTOR2D.CPP|C:\COURSES\TOOLS_FALL_15\BUCKLAND_PGAIBE_SOURCE_VC6-VS2010\VS2010\COMMON\DEBUG\DEBUGCONSOLE.CPP|C:\COURSES\TOOLS_FALL_15\BUCKLAND_PGAIBE_SOURCE_VC6-VS2010\VS2010\COMMON\GAME\BASEGAMEENTITY.CPP|C:\COURSES\TOOLS_FALL_15\BUCKLAND_PGAIBE_SOURCE_VC6-VS2010\VS2010\COMMON\GAME\ENTITYMANAGER.CPP|C:\COURSES\TOOLS_FALL_15\BUCKLAND_PGAIBE_SOURCE_VC6-VS2010\VS2010\COMMON\MESSAGING\MESSAGEDISPATCHER.CPP|C:\COURSES\TOOLS_FALL_15\BUCKLAND_PGAIBE_SOURCE_VC6-VS2010\VS2010\COMMON\MISC\CGDI.CPP|C:\COURSES\TOOLS_FALL_15\BUCKLAND_PGAIBE_SOURCE_VC6-VS2010\VS2010\COMMON\MISC\FRAMECOUNTER.CPP|C:\COURSES\TOOLS_FALL_15\BUCKLAND_PGAIBE_SOURCE_VC6-VS2010\VS2010\COMMON\MISC\INIFILELOADERBASE.CPP|C:\COURSES\TOOLS_FALL_15\BUCKLAND_PGAIBE_SOURCE_VC6-VS2010\VS2010\COMMON\MISC\WINDOWUTILS.CPP|C:\COURSES\TOOLS_FALL_15\BUCKLAND_PGAIBE_SOURCE_VC6-VS2010\VS2010\COMMON\TIME\PRECISIONTIMER.CPP
C:\COURSES\TOOLS_FALL_15\BUCKLAND_PGAIBE_SOURCE_VC6-VS2010\VS2010\BUCKLAND_CHAPTER4-SIMPLESOCCER\RELEASE\VC120.PDB
C:\COURSES\TOOLS_FALL_15\BUCKLAND_PGAIBE_SOURCE_VC6-VS2010\VS2010\BUCKLAND_CHAPTER4-SIMPLESOCCER\RELEASE\MAIN.SBR
C:\COURSES\TOOLS_FALL_15\BUCKLAND_PGAIBE_SOURCE_VC6-VS2010\VS2010\BUCKLAND_CHAPTER4-SIMPLESOCCER\RELEASE\PARAMLOADER.SBR
C:\COURSES\TOOLS_FALL_15\BUCKLAND_PGAIBE_SOURCE_VC6-VS2010\VS2010\BUCKLAND_CHAPTER4-SIMPLESOCCER\RELEASE\SOCCERPITCH.SBR
C:\COURSES\TOOLS_FALL_15\BUCKLAND_PGAIBE_SOURCE_VC6-VS2010\VS2010\BUCKLAND_CHAPTER4-SIMPLESOCCER\RELEASE\SOCCERTEAM.SBR
C:\COURSES\TOOLS_FALL_15\BUCKLAND_PGAIBE_SOURCE_VC6-VS2010\VS2010\BUCKLAND_CHAPTER4-SIMPLESOCCER\RELEASE\STEERINGBEHAVIORS.SBR
C:\COURSES\TOOLS_FALL_15\BUCKLAND_PGAIBE_SOURCE_VC6-VS2010\VS2010\BUCKLAND_CHAPTER4-SIMPLESOCCER\RELEASE\SUPPORTSPOTCALCULATOR.SBR
C:\COURSES\TOOLS_FALL_15\BUCKLAND_PGAIBE_SOURCE_VC6-VS2010\VS2010\BUCKLAND_CHAPTER4-SIMPLESOCCER\RELEASE\FIELDPLAYERSTATES.SBR
C:\COURSES\TOOLS_FALL_15\BUCKLAND_PGAIBE_SOURCE_VC6-VS2010\VS2010\BUCKLAND_CHAPTER4-SIMPLESOCCER\RELEASE\GOALKEEPERSTATES.SBR
C:\COURSES\TOOLS_FALL_15\BUCKLAND_PGAIBE_SOURCE_VC6-VS2010\VS2010\BUCKLAND_CHAPTER4-SIMPLESOCCER\RELEASE\TEAMSTATES.SBR
C:\COURSES\TOOLS_FALL_15\BUCKLAND_PGAIBE_SOURCE_VC6-VS2010\VS2010\BUCKLAND_CHAPTER4-SIMPLESOCCER\RELEASE\MESSAGEDISPATCHER.SBR
C:\COURSES\TOOLS_FALL_15\BUCKLAND_PGAIBE_SOURCE_VC6-VS2010\VS2010\BUCKLAND_CHAPTER4-SIMPLESOCCER\RELEASE\SOCCERMESSAGES.SBR
C:\COURSES\TOOLS_FALL_15\BUCKLAND_PGAIBE_SOURCE_VC6-VS2010\VS2010\BUCKLAND_CHAPTER4-SIMPLESOCCER\RELEASE\BASEGAMEENTITY.SBR
C:\COURSES\TOOLS_FALL_15\BUCKLAND_PGAIBE_SOURCE_VC6-VS2010\VS2010\BUCKLAND_CHAPTER4-SIMPLESOCCER\RELEASE\ENTITYMANAGER.SBR
C:\COURSES\TOOLS_FALL_15\BUCKLAND_PGAIBE_SOURCE_VC6-VS2010\VS2010\BUCKLAND_CHAPTER4-SIMPLESOCCER\RELEASE\FIELDPLAYER.SBR
C:\COURSES\TOOLS_FALL_15\BUCKLAND_PGAIBE_SOURCE_VC6-VS2010\VS2010\BUCKLAND_CHAPTER4-SIMPLESOCCER\RELEASE\GOALKEEPER.SBR
C:\COURSES\TOOLS_FALL_15\BUCKLAND_PGAIBE_SOURCE_VC6-VS2010\VS2010\BUCKLAND_CHAPTER4-SIMPLESOCCER\RELEASE\PLAYERBASE.SBR
C:\COURSES\TOOLS_FALL_15\BUCKLAND_PGAIBE_SOURCE_VC6-VS2010\VS2010\BUCKLAND_CHAPTER4-SIMPLESOCCER\RELEASE\SOCCERBALL.SBR
C:\COURSES\TOOLS_FALL_15\BUCKLAND_PGAIBE_SOURCE_VC6-VS2010\VS2010\BUCKLAND_CHAPTER4-SIMPLESOCCER\RELEASE\CGDI.SBR
C:\COURSES\TOOLS_FALL_15\BUCKLAND_PGAIBE_SOURCE_VC6-VS2010\VS2010\BUCKLAND_CHAPTER4-SIMPLESOCCER\RELEASE\DEBUGCONSOLE.SBR
C:\COURSES\TOOLS_FALL_15\BUCKLAND_PGAIBE_SOURCE_VC6-VS2010\VS2010\BUCKLAND_CHAPTER4-SIMPLESOCCER\RELEASE\FRAMECOUNTER.SBR
C:\COURSES\TOOLS_FALL_15\BUCKLAND_PGAIBE_SOURCE_VC6-VS2010\VS2010\BUCKLAND_CHAPTER4-SIMPLESOCCER\RELEASE\FRAMECOUNTER.OBJ
C:\COURSES\TOOLS_FALL_15\BUCKLAND_PGAIBE_SOURCE_VC6-VS2010\VS2010\BUCKLAND_CHAPTER4-SIMPLESOCCER\RELEASE\DEBUGCONSOLE.OBJ
C:\COURSES\TOOLS_FALL_15\BUCKLAND_PGAIBE_SOURCE_VC6-VS2010\VS2010\BUCKLAND_CHAPTER4-SIMPLESOCCER\RELEASE\CGDI.OBJ
C:\COURSES\TOOLS_FALL_15\BUCKLAND_PGAIBE_SOURCE_VC6-VS2010\VS2010\BUCKLAND_CHAPTER4-SIMPLESOCCER\RELEASE\SOCCERBALL.OBJ
C:\COURSES\TOOLS_FALL_15\BUCKLAND_PGAIBE_SOURCE_VC6-VS2010\VS2010\BUCKLAND_CHAPTER4-SIMPLESOCCER\RELEASE\PLAYERBASE.OBJ
C:\COURSES\TOOLS_FALL_15\BUCKLAND_PGAIBE_SOURCE_VC6-VS2010\VS2010\BUCKLAND_CHAPTER4-SIMPLESOCCER\RELEASE\GOALKEEPER.OBJ
C:\COURSES\TOOLS_FALL_15\BUCKLAND_PGAIBE_SOURCE_VC6-VS2010\VS2010\BUCKLAND_CHAPTER4-SIMPLESOCCER\RELEASE\FIELDPLAYER.OBJ
C:\COURSES\TOOLS_FALL_15\BUCKLAND_PGAIBE_SOURCE_VC6-VS2010\VS2010\BUCKLAND_CHAPTER4-SIMPLESOCCER\RELEASE\ENTITYMANAGER.OBJ
C:\COURSES\TOOLS_FALL_15\BUCKLAND_PGAIBE_SOURCE_VC6-VS2010\VS2010\BUCKLAND_CHAPTER4-SIMPLESOCCER\RELEASE\BASEGAMEENTITY.OBJ
C:\COURSES\TOOLS_FALL_15\BUCKLAND_PGAIBE_SOURCE_VC6-VS2010\VS2010\BUCKLAND_CHAPTER4-SIMPLESOCCER\RELEASE\SOCCERMESSAGES.OBJ
C:\COURSES\TOOLS_FALL_15\BUCKLAND_PGAIBE_SOURCE_VC6-VS2010\VS2010\BUCKLAND_CHAPTER4-SIMPLESOCCER\RELEASE\MESSAGEDISPATCHER.OBJ
C:\COURSES\TOOLS_FALL_15\BUCKLAND_PGAIBE_SOURCE_VC6-VS2010\VS2010\BUCKLAND_CHAPTER4-SIMPLESOCCER\RELEASE\TEAMSTATES.OBJ
C:\COURSES\TOOLS_FALL_15\BUCKLAND_PGAIBE_SOURCE_VC6-VS2010\VS2010\BUCKLAND_CHAPTER4-SIMPLESOCCER\RELEASE\GOALKEEPERSTATES.OBJ
C:\COURSES\TOOLS_FALL_15\BUCKLAND_PGAIBE_SOURCE_VC6-VS2010\VS2010\BUCKLAND_CHAPTER4-SIMPLESOCCER\RELEASE\FIELDPLAYERSTATES.OBJ
C:\COURSES\TOOLS_FALL_15\BUCKLAND_PGAIBE_SOURCE_VC6-VS2010\VS2010\BUCKLAND_CHAPTER4-SIMPLESOCCER\RELEASE\SUPPORTSPOTCALCULATOR.OBJ
C:\COURSES\TOOLS_FALL_15\BUCKLAND_PGAIBE_SOURCE_VC6-VS2010\VS2010\BUCKLAND_CHAPTER4-SIMPLESOCCER\RELEASE\STEERINGBEHAVIORS.OBJ
C:\COURSES\TOOLS_FALL_15\BUCKLAND_PGAIBE_SOURCE_VC6-VS2010\VS2010\BUCKLAND_CHAPTER4-SIMPLESOCCER\RELEASE\SOCCERTEAM.OBJ
C:\COURSES\TOOLS_FALL_15\BUCKLAND_PGAIBE_SOURCE_VC6-VS2010\VS2010\BUCKLAND_CHAPTER4-SIMPLESOCCER\RELEASE\SOCCERPITCH.OBJ
C:\COURSES\TOOLS_FALL_15\BUCKLAND_PGAIBE_SOURCE_VC6-VS2010\VS2010\BUCKLAND_CHAPTER4-SIMPLESOCCER\RELEASE\PARAMLOADER.OBJ
C:\COURSES\TOOLS_FALL_15\BUCKLAND_PGAIBE_SOURCE_VC6-VS2010\VS2010\BUCKLAND_CHAPTER4-SIMPLESOCCER\RELEASE\MAIN.OBJ
C:\COURSES\TOOLS_FALL_15\BUCKLAND_PGAIBE_SOURCE_VC6-VS2010\VS2010\BUCKLAND_CHAPTER4-SIMPLESOCCER\RELEASE\INIFILELOADERBASE.SBR
C:\COURSES\TOOLS_FALL_15\BUCKLAND_PGAIBE_SOURCE_VC6-VS2010\VS2010\BUCKLAND_CHAPTER4-SIMPLESOCCER\RELEASE\PRECISIONTIMER.SBR
C:\COURSES\TOOLS_FALL_15\BUCKLAND_PGAIBE_SOURCE_VC6-VS2010\VS2010\BUCKLAND_CHAPTER4-SIMPLESOCCER\RELEASE\VECTOR2D.SBR
C:\COURSES\TOOLS_FALL_15\BUCKLAND_PGAIBE_SOURCE_VC6-VS2010\VS2010\BUCKLAND_CHAPTER4-SIMPLESOCCER\RELEASE\WINDOWUTILS.SBR
C:\COURSES\TOOLS_FALL_15\BUCKLAND_PGAIBE_SOURCE_VC6-VS2010\VS2010\BUCKLAND_CHAPTER4-SIMPLESOCCER\RELEASE\WINDOWUTILS.OBJ
C:\COURSES\TOOLS_FALL_15\BUCKLAND_PGAIBE_SOURCE_VC6-VS2010\VS2010\BUCKLAND_CHAPTER4-SIMPLESOCCER\RELEASE\VECTOR2D.OBJ
C:\COURSES\TOOLS_FALL_15\BUCKLAND_PGAIBE_SOURCE_VC6-VS2010\VS2010\BUCKLAND_CHAPTER4-SIMPLESOCCER\RELEASE\PRECISIONTIMER.OBJ
C:\COURSES\TOOLS_FALL_15\BUCKLAND_PGAIBE_SOURCE_VC6-VS2010\VS2010\BUCKLAND_CHAPTER4-SIMPLESOCCER\RELEASE\INIFILELOADERBASE.OBJ
^C:\COURSES\TOOLS_FALL_15\BUCKLAND_PGAIBE_SOURCE_VC6-VS2010\VS2010\BUCKLAND_CHAPTER4-SIMPLESOCCER\MAIN.CPP
C:\COURSES\TOOLS_FALL_15\BUCKLAND_PGAIBE_SOURCE_VC6-VS2010\VS2010\BUCKLAND_CHAPTER4-SIMPLESOCCER\RELEASE\VC120.PDB
^C:\COURSES\TOOLS_FALL_15\BUCKLAND_PGAIBE_SOURCE_VC6-VS2010\VS2010\BUCKLAND_CHAPTER4-SIMPLESOCCER\PARAMLOADER.CPP
C:\COURSES\TOOLS_FALL_15\BUCKLAND_PGAIBE_SOURCE_VC6-VS2010\VS2010\BUCKLAND_CHAPTER4-SIMPLESOCCER\RELEASE\VC120.PDB
^C:\COURSES\TOOLS_FALL_15\BUCKLAND_PGAIBE_SOURCE_VC6-VS2010\VS2010\BUCKLAND_CHAPTER4-SIMPLESOCCER\SOCCERPITCH.CPP
C:\COURSES\TOOLS_FALL_15\BUCKLAND_PGAIBE_SOURCE_VC6-VS2010\VS2010\BUCKLAND_CHAPTER4-SIMPLESOCCER\RELEASE\VC120.PDB
^C:\COURSES\TOOLS_FALL_15\BUCKLAND_PGAIBE_SOURCE_VC6-VS2010\VS2010\BUCKLAND_CHAPTER4-SIMPLESOCCER\SOCCERTEAM.CPP
C:\COURSES\TOOLS_FALL_15\BUCKLAND_PGAIBE_SOURCE_VC6-VS2010\VS2010\BUCKLAND_CHAPTER4-SIMPLESOCCER\RELEASE\VC120.PDB
^C:\COURSES\TOOLS_FALL_15\BUCKLAND_PGAIBE_SOURCE_VC6-VS2010\VS2010\BUCKLAND_CHAPTER4-SIMPLESOCCER\STEERINGBEHAVIORS.CPP
C:\COURSES\TOOLS_FALL_15\BUCKLAND_PGAIBE_SOURCE_VC6-VS2010\VS2010\BUCKLAND_CHAPTER4-SIMPLESOCCER\RELEASE\VC120.PDB
^C:\COURSES\TOOLS_FALL_15\BUCKLAND_PGAIBE_SOURCE_VC6-VS2010\VS2010\BUCKLAND_CHAPTER4-SIMPLESOCCER\SUPPORTSPOTCALCULATOR.CPP
C:\COURSES\TOOLS_FALL_15\BUCKLAND_PGAIBE_SOURCE_VC6-VS2010\VS2010\BUCKLAND_CHAPTER4-SIMPLESOCCER\RELEASE\VC120.PDB
^C:\COURSES\TOOLS_FALL_15\BUCKLAND_PGAIBE_SOURCE_VC6-VS2010\VS2010\BUCKLAND_CHAPTER4-SIMPLESOCCER\FIELDPLAYERSTATES.CPP
C:\COURSES\TOOLS_FALL_15\BUCKLAND_PGAIBE_SOURCE_VC6-VS2010\VS2010\BUCKLAND_CHAPTER4-SIMPLESOCCER\RELEASE\VC120.PDB
^C:\COURSES\TOOLS_FALL_15\BUCKLAND_PGAIBE_SOURCE_VC6-VS2010\VS2010\BUCKLAND_CHAPTER4-SIMPLESOCCER\GOALKEEPERSTATES.CPP
C:\COURSES\TOOLS_FALL_15\BUCKLAND_PGAIBE_SOURCE_VC6-VS2010\VS2010\BUCKLAND_CHAPTER4-SIMPLESOCCER\RELEASE\VC120.PDB
^C:\COURSES\TOOLS_FALL_15\BUCKLAND_PGAIBE_SOURCE_VC6-VS2010\VS2010\BUCKLAND_CHAPTER4-SIMPLESOCCER\TEAMSTATES.CPP
C:\COURSES\TOOLS_FALL_15\BUCKLAND_PGAIBE_SOURCE_VC6-VS2010\VS2010\BUCKLAND_CHAPTER4-SIMPLESOCCER\RELEASE\VC120.PDB
^C:\COURSES\TOOLS_FALL_15\BUCKLAND_PGAIBE_SOURCE_VC6-VS2010\VS2010\COMMON\MESSAGING\MESSAGEDISPATCHER.CPP
C:\COURSES\TOOLS_FALL_15\BUCKLAND_PGAIBE_SOURCE_VC6-VS2010\VS2010\BUCKLAND_CHAPTER4-SIMPLESOCCER\RELEASE\VC120.PDB
^C:\COURSES\TOOLS_FALL_15\BUCKLAND_PGAIBE_SOURCE_VC6-VS2010\VS2010\BUCKLAND_CHAPTER4-SIMPLESOCCER\SOCCERMESSAGES.CPP
C:\COURSES\TOOLS_FALL_15\BUCKLAND_PGAIBE_SOURCE_VC6-VS2010\VS2010\BUCKLAND_CHAPTER4-SIMPLESOCCER\RELEASE\VC120.PDB
^C:\COURSES\TOOLS_FALL_15\BUCKLAND_PGAIBE_SOURCE_VC6-VS2010\VS2010\COMMON\GAME\BASEGAMEENTITY.CPP
C:\COURSES\TOOLS_FALL_15\BUCKLAND_PGAIBE_SOURCE_VC6-VS2010\VS2010\BUCKLAND_CHAPTER4-SIMPLESOCCER\RELEASE\VC120.PDB
^C:\COURSES\TOOLS_FALL_15\BUCKLAND_PGAIBE_SOURCE_VC6-VS2010\VS2010\COMMON\GAME\ENTITYMANAGER.CPP
C:\COURSES\TOOLS_FALL_15\BUCKLAND_PGAIBE_SOURCE_VC6-VS2010\VS2010\BUCKLAND_CHAPTER4-SIMPLESOCCER\RELEASE\VC120.PDB
^C:\COURSES\TOOLS_FALL_15\BUCKLAND_PGAIBE_SOURCE_VC6-VS2010\VS2010\BUCKLAND_CHAPTER4-SIMPLESOCCER\FIELDPLAYER.CPP
C:\COURSES\TOOLS_FALL_15\BUCKLAND_PGAIBE_SOURCE_VC6-VS2010\VS2010\BUCKLAND_CHAPTER4-SIMPLESOCCER\RELEASE\VC120.PDB
^C:\COURSES\TOOLS_FALL_15\BUCKLAND_PGAIBE_SOURCE_VC6-VS2010\VS2010\BUCKLAND_CHAPTER4-SIMPLESOCCER\GOALKEEPER.CPP
C:\COURSES\TOOLS_FALL_15\BUCKLAND_PGAIBE_SOURCE_VC6-VS2010\VS2010\BUCKLAND_CHAPTER4-SIMPLESOCCER\RELEASE\VC120.PDB
^C:\COURSES\TOOLS_FALL_15\BUCKLAND_PGAIBE_SOURCE_VC6-VS2010\VS2010\BUCKLAND_CHAPTER4-SIMPLESOCCER\PLAYERBASE.CPP
C:\COURSES\TOOLS_FALL_15\BUCKLAND_PGAIBE_SOURCE_VC6-VS2010\VS2010\BUCKLAND_CHAPTER4-SIMPLESOCCER\RELEASE\VC120.PDB
^C:\COURSES\TOOLS_FALL_15\BUCKLAND_PGAIBE_SOURCE_VC6-VS2010\VS2010\BUCKLAND_CHAPTER4-SIMPLESOCCER\SOCCERBALL.CPP
C:\COURSES\TOOLS_FALL_15\BUCKLAND_PGAIBE_SOURCE_VC6-VS2010\VS2010\BUCKLAND_CHAPTER4-SIMPLESOCCER\RELEASE\VC120.PDB
^C:\COURSES\TOOLS_FALL_15\BUCKLAND_PGAIBE_SOURCE_VC6-VS2010\VS2010\COMMON\MISC\CGDI.CPP
C:\COURSES\TOOLS_FALL_15\BUCKLAND_PGAIBE_SOURCE_VC6-VS2010\VS2010\BUCKLAND_CHAPTER4-SIMPLESOCCER\RELEASE\VC120.PDB
^C:\COURSES\TOOLS_FALL_15\BUCKLAND_PGAIBE_SOURCE_VC6-VS2010\VS2010\COMMON\DEBUG\DEBUGCONSOLE.CPP
C:\COURSES\TOOLS_FALL_15\BUCKLAND_PGAIBE_SOURCE_VC6-VS2010\VS2010\BUCKLAND_CHAPTER4-SIMPLESOCCER\RELEASE\VC120.PDB
^C:\COURSES\TOOLS_FALL_15\BUCKLAND_PGAIBE_SOURCE_VC6-VS2010\VS2010\COMMON\MISC\FRAMECOUNTER.CPP
C:\COURSES\TOOLS_FALL_15\BUCKLAND_PGAIBE_SOURCE_VC6-VS2010\VS2010\BUCKLAND_CHAPTER4-SIMPLESOCCER\RELEASE\VC120.PDB
^C:\COURSES\TOOLS_FALL_15\BUCKLAND_PGAIBE_SOURCE_VC6-VS2010\VS2010\COMMON\MISC\INIFILELOADERBASE.CPP
C:\COURSES\TOOLS_FALL_15\BUCKLAND_PGAIBE_SOURCE_VC6-VS2010\VS2010\BUCKLAND_CHAPTER4-SIMPLESOCCER\RELEASE\VC120.PDB
^C:\COURSES\TOOLS_FALL_15\BUCKLAND_PGAIBE_SOURCE_VC6-VS2010\VS2010\COMMON\TIME\PRECISIONTIMER.CPP
C:\COURSES\TOOLS_FALL_15\BUCKLAND_PGAIBE_SOURCE_VC6-VS2010\VS2010\BUCKLAND_CHAPTER4-SIMPLESOCCER\RELEASE\VC120.PDB
^C:\COURSES\TOOLS_FALL_15\BUCKLAND_PGAIBE_SOURCE_VC6-VS2010\VS2010\COMMON\2D\VECTOR2D.CPP
C:\COURSES\TOOLS_FALL_15\BUCKLAND_PGAIBE_SOURCE_VC6-VS2010\VS2010\BUCKLAND_CHAPTER4-SIMPLESOCCER\RELEASE\VC120.PDB
^C:\COURSES\TOOLS_FALL_15\BUCKLAND_PGAIBE_SOURCE_VC6-VS2010\VS2010\COMMON\MISC\WINDOWUTILS.CPP
C:\COURSES\TOOLS_FALL_15\BUCKLAND_PGAIBE_SOURCE_VC6-VS2010\VS2010\BUCKLAND_CHAPTER4-SIMPLESOCCER\RELEASE\VC120.PDB
